<?xml version="1.0" encoding="utf-8"?>
<!-- Generator: Adobe Illustrator 21.1.0, SVG Export Plug-In . SVG Version: 6.00 Build 0)  -->
<svg version="1.1" id="Layer_1" xmlns="http://www.w3.org/2000/svg" xmlns:xlink="http://www.w3.org/1999/xlink" x="0px" y="0px"
	 viewBox="0 0 122.5 146.7" style="enable-background:new 0 0 122.5 146.7;" xml:space="preserve">
<style type="text/css">
	.st0{fill:#FFFFFF;}
</style>
<title>btn-comingSoon-v1</title>
<g>
	<g>
		<path class="st0" d="M0.6,134.3l25.1-15.1l0.3-4.3c0,0,0.4-0.4,0.6-0.3c0.2,0.1,1-0.6,1.1-1.3c0,0,0.7,0.1,1.1-0.5
			s0.5-1.3,1.1-1.2c0.6,0.1,0.8-1.1,0.8-1.1l1.1-0.4c0,0,0.9-1.3,1.3-1.5c0.3-0.2,0.4-0.2,0.5-0.2c0.1,0,0.4-0.5,0.4-0.5
			s8.1-2.4,8.9-3c0.9-0.7,0.8-0.7,0.7-1c-0.1-0.3-0.4-0.2-0.4-0.2s4.1-1.3,4.3-2.6c0,0-0.6,0.1-0.8,0.1c-0.2,0.1-4.8,1.5-4.8,1.5
			s1.1-0.9,0.7-1.2c-0.4-0.3-1.3,0.3-1.3,0.3l-2.1,0.9c0,0,4.5-3,4.4-4.3c0,0-1.3,0.5-1.3,0.6s-2.3,2-2.9,2.1c0,0,0.7-0.9,0.4-1.1
			s-0.8-0.2-0.8-0.2s1.9-1.3,2.1-1.8c0.1-0.5,0.7-1.1,0.7-1.1s0.6-0.5,0.8-0.6s2.8-1.6,3.3-2.4c0.5-0.8,2.9-3.1,2.9-3.1l33.2-32
			l5.5-5.2c0,0,0.5-0.5,0.6-0.7c0.1-0.2,0.8-0.7,1.2-1.3s16.6-16.2,16.7-16.5c0.1-0.3,3.9-4.4,4.4-4.5c0.5-0.1,1.3,0,1.7-0.4
			s1.8-1.3,1.8-1.7c-0.1-0.4,3.6-3.2,3.6-3.2l0.4-1.2c0,0,1.4,0,1.5-1l1.7-0.7c0,0,2.6-2.3,2.3-2.6s-2-1.3-2-1.3l-0.7,0.3l-0.4-0.9
			c0,0-1.6-0.5-1.7-0.4c-0.1,0.1-1.8,2.3-1.8,2.3s-1.6,1.2-1.8,1.7c-0.2,0.5-0.8,0.5-1.2,1.1c-0.3,0.5-0.6,1.1-0.7,1.1
			c-0.1,0.1-2.8,2.6-2.8,2.6s-1.2,0.4-1.4,0.7c-0.2,0.3,0,0.7,0,0.7l-1,1.1l-0.1,0.6c0,0-3.1,3.1-3.4,3.4
			c-0.3,0.3-17.3,16.7-17.8,16.8c-0.5,0.1-0.5,1.3-0.5,1.3l-7.4,7.2L46,88.9c0,0-3.1,2.5-3.4,2.7c-0.3,0.2-0.9,0.8-0.9,0.8l-1.5,2
			c0,0-0.7-0.3-1,0.2c-0.3,0.5-1.8,2.4-1.8,2.4l-1.2,0.4c0,0,1-1,0.8-1.5c-0.1-0.4-0.8-0.2-0.8-0.2S35,96.3,35,96.3
			c0,0,1.3-2,1.4-2.3c0.1-0.4-0.4-0.5-0.5-0.4c-0.1,0-0.3,0.2-0.4,0.3c-0.1,0.2-1.5,1.7-1.9,2.1c-0.3,0.4-1.2,1.3-1.4,1.7
			s-0.4,0.7-0.4,0.7l-0.3,0.1c0,0,1.3-2.1,1.4-2.5s1.1-2.3,1.6-3.4c0.5-1.1,0.7-1.4,0.5-1.6s-0.4-0.4-0.6-0.2s-0.4,0.1-0.8,0.8
			c-0.4,0.6-2.3,4.3-2.6,5.1c-0.4,0.8-1,1.9-1.3,2.7c-0.3,0.8-1.1,2.4-1.2,2.7c-0.2,0.3-1.1,1.3-1.1,1.3s-0.1-1.1-0.2-1.4
			c-0.2-0.2-0.5-0.1-0.5,0.2c-0.1,0.3,0.1,1.9-0.2,2.3c-0.3,0.4-0.7,1-0.7,1.2c0,0-0.4,0.4-0.5,0.6c-0.1,0.2-0.4,0.5-0.7,0.7
			c-0.4,0.2-0.5,0-0.8,0.5s-0.5,1-0.5,1s-0.7,0.1-0.8,0.3c-0.2,0.2-0.1,0.2-0.2,0.2c-0.1,0-0.8,0.3-1,0.5s-0.5,0.7-0.5,0.7
			s-1.9,0.1-2.9,0c-1-0.1-1.5-0.3-2.2,0.4c-0.7,0.6-2.3,4-2.3,4l-6.7,10.2l-0.9,2.9L4,128L0.6,134.3z"/>
		<path class="st0" d="M123,134.3l-25.1-15.1l-0.3-4.3c0,0-0.4-0.4-0.6-0.3c-0.2,0.1-1-0.6-1.1-1.3c0,0-0.7,0.1-1.1-0.5
			s-0.5-1.3-1.1-1.2c-0.6,0.1-0.8-1.1-0.8-1.1L92,110c0,0-0.9-1.3-1.3-1.5c-0.3-0.2-0.4-0.2-0.5-0.2c-0.1,0-0.4-0.5-0.4-0.5
			s-8.1-2.4-8.9-3c-0.9-0.7-0.8-0.7-0.7-1c0.1-0.3,0.4-0.2,0.4-0.2s-4.1-1.3-4.3-2.6c0,0,0.6,0.1,0.8,0.1c0.2,0.1,4.8,1.5,4.8,1.5
			s-1.1-0.9-0.7-1.2c0.4-0.3,1.3,0.3,1.3,0.3l2.1,0.9c0,0-4.5-3-4.4-4.3c0,0,1.3,0.5,1.3,0.6s2.3,2,2.9,2.1c0,0-0.7-0.9-0.4-1.1
			s0.8-0.2,0.8-0.2s-1.9-1.3-2.1-1.8c-0.1-0.5-0.7-1.1-0.7-1.1s-0.6-0.5-0.8-0.6c-0.2-0.1-2.8-1.6-3.3-2.4c-0.5-0.8-2.9-3.1-2.9-3.1
			l-33.2-32l-5.5-5.2c0,0-0.5-0.5-0.6-0.7s-0.8-0.7-1.2-1.3S18.2,35.3,18,35s-3.9-4.4-4.4-4.5c-0.5-0.1-1.3,0-1.7-0.4
			s-1.8-1.3-1.8-1.7c0.1-0.4-3.6-3.2-3.6-3.2L6.1,24c0,0-1.4,0-1.5-1l-1.7-0.7c0,0-2.6-2.3-2.3-2.6s2-1.3,2-1.3l0.7,0.3l0.4-0.9
			c0,0,1.6-0.5,1.7-0.4c0.1,0.1,1.8,2.3,1.8,2.3s1.6,1.2,1.8,1.7c0.2,0.5,0.8,0.5,1.2,1.1c0.3,0.5,0.6,1.1,0.7,1.1
			c0.1,0.1,2.8,2.6,2.8,2.6s1.2,0.4,1.4,0.7c0.2,0.3,0,0.7,0,0.7l1,1.1l0.1,0.6c0,0,3.1,3.1,3.4,3.4c0.3,0.3,17.3,16.7,17.8,16.8
			c0.5,0.1,0.5,1.3,0.5,1.3l7.4,7.2l32.4,30.9c0,0,3.1,2.5,3.4,2.7s0.9,0.8,0.9,0.8l1.5,2c0,0,0.7-0.3,1,0.2
			c0.3,0.5,1.8,2.4,1.8,2.4l1.2,0.4c0,0-1-1-0.8-1.5c0.1-0.4,0.8-0.2,0.8-0.2s1.1,0.7,1.1,0.7c0,0-1.3-2-1.4-2.3s0.4-0.5,0.5-0.4
			c0.1,0,0.3,0.2,0.4,0.3s1.5,1.7,1.9,2.1c0.3,0.4,1.2,1.3,1.4,1.7s0.4,0.7,0.4,0.7l0.3,0.1c0,0-1.3-2.1-1.4-2.5
			c-0.2-0.4-1.1-2.3-1.6-3.4c-0.5-1.1-0.7-1.4-0.5-1.6s0.4-0.4,0.6-0.2s0.4,0.1,0.8,0.8c0.4,0.6,2.3,4.3,2.6,5.1
			c0.4,0.8,1,1.9,1.3,2.7c0.3,0.8,1.1,2.4,1.2,2.7c0.2,0.3,1.1,1.3,1.1,1.3s0.1-1.1,0.2-1.4c0.2-0.2,0.5-0.1,0.5,0.2
			c0.1,0.3-0.1,1.9,0.2,2.3c0.3,0.4,0.7,1,0.7,1.2c0,0,0.4,0.4,0.5,0.6c0.1,0.2,0.4,0.5,0.7,0.7c0.4,0.2,0.5,0,0.8,0.5s0.5,1,0.5,1
			s0.7,0.1,0.8,0.3c0.2,0.2,0.1,0.2,0.2,0.2c0.1,0,0.8,0.3,1,0.5s0.5,0.7,0.5,0.7s1.9,0.1,2.9,0c1-0.1,1.5-0.3,2.2,0.4
			c0.7,0.6,2.3,4,2.3,4l6.7,10.2l0.9,2.9l1.6,0.6L123,134.3z"/>
	</g>
</g>
<g>
	<path class="st0" d="M31.6,5.1l0.3,4.1h-0.3c-0.2-0.6-0.4-1.1-0.7-1.6s-0.6-0.8-0.9-1.1S29.4,6.1,29,6s-0.8-0.2-1.3-0.2
		c-0.8,0-1.5,0.2-2.1,0.6s-1.1,1-1.5,1.8c-0.2,0.4-0.4,1-0.5,1.5c-0.1,0.6-0.2,1.2-0.2,1.9c0,1.1,0.2,2,0.5,2.8
		c0.2,0.4,0.4,0.8,0.7,1.1s0.6,0.6,0.9,0.8s0.7,0.4,1.1,0.5s0.8,0.2,1.3,0.2c0.5,0,0.9,0,1.3-0.1s0.7-0.3,1-0.5s0.6-0.5,0.8-0.8
		s0.6-0.7,0.9-1.1l0.3,0.2c-0.3,0.5-0.6,1-1,1.4s-0.7,0.7-1.1,1s-0.8,0.4-1.3,0.6c-0.5,0.1-1,0.2-1.5,0.2c-2,0-3.5-0.7-4.6-2.2
		c-0.8-1.1-1.2-2.4-1.2-3.8c0-0.7,0.1-1.4,0.3-2.1c0.2-0.7,0.5-1.3,0.9-1.8c0.3-0.4,0.6-0.8,1-1.1s0.8-0.6,1.2-0.8s0.9-0.4,1.3-0.5
		s0.9-0.2,1.4-0.2c0.9,0,1.7,0.2,2.5,0.6C30.3,5.9,30.5,6,30.6,6c0.2,0,0.3-0.1,0.5-0.2c0.1-0.2,0.2-0.4,0.3-0.6H31.6z"/>
	<path class="st0" d="M36.5,10.9H42V7.5c0-0.3,0-0.5,0-0.7s0-0.3-0.1-0.4c0-0.1-0.1-0.2-0.1-0.3c-0.1-0.1-0.1-0.1-0.3-0.2
		c-0.3-0.1-0.5-0.2-0.8-0.2h-0.4V5.4h5.1l0,0.3H45c-0.1,0-0.2,0-0.4,0s-0.2,0.1-0.4,0.1S44.1,6,44,6.1c-0.1,0.1-0.1,0.2-0.2,0.3
		c-0.1,0.2-0.1,0.6-0.1,1.2v7.7c0,0.3,0,0.5,0,0.7s0,0.3,0.1,0.4c0,0.1,0.1,0.2,0.1,0.3s0.1,0.1,0.3,0.2c0.3,0.1,0.5,0.2,0.8,0.2
		h0.4v0.3h-5.1V17h0.4c0.5,0,0.8-0.1,1.1-0.4c0.1-0.2,0.2-0.6,0.2-1.4v-3.6h-5.5v3.6c0,0.3,0,0.5,0,0.7s0,0.3,0.1,0.4
		s0.1,0.2,0.1,0.3s0.1,0.1,0.3,0.2c0.3,0.1,0.5,0.2,0.8,0.2h0.4v0.3h-5.1V17h0.4c0.5,0,0.9-0.1,1.1-0.4c0.1-0.2,0.2-0.6,0.2-1.4V7.5
		c0-0.3,0-0.5,0-0.7s0-0.3-0.1-0.4c0-0.1-0.1-0.2-0.1-0.3c-0.1-0.1-0.1-0.1-0.3-0.2c-0.3-0.1-0.5-0.2-0.8-0.2h-0.4V5.4h5.1v0.3h-0.4
		c-0.1,0-0.2,0-0.4,0s-0.2,0.1-0.3,0.1S36.9,6,36.8,6.1c-0.1,0.1-0.1,0.2-0.2,0.3c-0.1,0.2-0.1,0.6-0.1,1.2V10.9z"/>
	<path class="st0" d="M54,13.3h-4.6l-0.8,1.9c-0.2,0.5-0.3,0.8-0.3,1c0,0.1,0,0.2,0,0.3c0,0.1,0.1,0.2,0.2,0.2
		c0.1,0.1,0.2,0.1,0.4,0.2c0.2,0,0.4,0.1,0.7,0.1v0.3h-3.8V17c0.5-0.1,0.8-0.2,1-0.3s0.3-0.4,0.5-0.6s0.3-0.6,0.5-1.1l4.2-9.8h0.3
		l4.1,9.9c0.2,0.4,0.3,0.7,0.5,1s0.3,0.4,0.4,0.6s0.3,0.2,0.5,0.3s0.4,0.1,0.6,0.1v0.3h-4.7V17c0.2,0,0.4,0,0.6-0.1s0.3-0.1,0.4-0.2
		s0.2-0.1,0.2-0.2s0.1-0.2,0.1-0.3c0-0.1,0-0.3-0.1-0.5c-0.1-0.2-0.2-0.4-0.3-0.7L54,13.3z M53.8,12.7l-2-4.8l-2.1,4.8H53.8z"/>
	<path class="st0" d="M62.5,11.7v3.5c0,0.8,0.1,1.2,0.2,1.4c0.2,0.3,0.6,0.4,1,0.4h0.5v0.3h-5.1V17h0.4c0.2,0,0.5,0,0.6-0.1
		s0.3-0.2,0.4-0.4c0.1-0.2,0.2-0.6,0.2-1.3V7.5c0-0.7-0.1-1.2-0.2-1.4c-0.2-0.3-0.6-0.4-1-0.4h-0.4V5.4h4.4c1.1,0,1.9,0.1,2.5,0.3
		c0.3,0.1,0.6,0.3,0.9,0.4s0.5,0.4,0.7,0.7c0.2,0.3,0.4,0.5,0.5,0.8c0.1,0.3,0.2,0.6,0.2,1c0,0.5-0.1,0.9-0.2,1.3
		c-0.2,0.4-0.4,0.7-0.7,1c-0.3,0.3-0.7,0.5-1.2,0.7s-1,0.2-1.6,0.2S63.2,11.9,62.5,11.7z M62.5,11.2c0.3,0.1,0.6,0.1,0.8,0.1
		s0.4,0,0.6,0c0.3,0,0.6-0.1,0.9-0.2c0.3-0.1,0.5-0.3,0.7-0.5c0.2-0.2,0.4-0.5,0.5-0.8c0.1-0.3,0.2-0.7,0.2-1c0-0.4-0.1-0.8-0.2-1.2
		c-0.1-0.3-0.3-0.6-0.5-0.9c-0.2-0.2-0.5-0.4-0.8-0.5c-0.3-0.1-0.6-0.2-1-0.2c-0.2,0-0.3,0-0.5,0c-0.2,0-0.4,0.1-0.6,0.1V11.2z"/>
	<path class="st0" d="M79.2,5.4v2.8H79c0-0.4-0.1-0.7-0.2-1c-0.1-0.3-0.3-0.5-0.4-0.6S78,6.3,77.7,6.3s-0.5-0.1-0.9-0.1h-1.7v9.1
		c0,0.7,0.1,1.2,0.2,1.4c0.2,0.2,0.6,0.4,1,0.4h0.4v0.3h-5.1V17h0.4c0.5,0,0.9-0.2,1.1-0.5c0.1-0.2,0.2-0.6,0.2-1.3V6.1H72
		c-0.4,0-0.7,0-0.9,0.1s-0.5,0.2-0.7,0.3S70.1,6.9,70,7.1s-0.2,0.6-0.3,1h-0.3V5.4H79.2z"/>
	<path class="st0" d="M83.6,6v4.7h2.6c0.4,0,0.7,0,0.9-0.1c0.2-0.1,0.4-0.2,0.6-0.3c0.1-0.1,0.2-0.3,0.3-0.5S88,9.3,88.1,9h0.3v4.1
		h-0.3c0-0.3-0.1-0.5-0.1-0.7c0-0.2-0.1-0.3-0.1-0.4c-0.1-0.1-0.1-0.2-0.2-0.3c-0.1-0.1-0.2-0.1-0.3-0.2s-0.3-0.1-0.5-0.1
		s-0.4,0-0.6,0h-2.6v3.9c0,0.5,0,0.8,0.1,1c0,0.1,0.1,0.1,0.1,0.1s0.1,0.1,0.2,0.1c0.1,0,0.2,0.1,0.3,0.1c0.1,0,0.2,0,0.4,0h2
		c0.3,0,0.6,0,0.9,0c0.2,0,0.4-0.1,0.6-0.1c0.2,0,0.3-0.1,0.5-0.2c0.1-0.1,0.3-0.2,0.4-0.3c0.2-0.2,0.4-0.4,0.6-0.7s0.4-0.6,0.6-1
		h0.4l-1,3h-9.2V17h0.4c0.1,0,0.2,0,0.4,0s0.2-0.1,0.3-0.1c0.1-0.1,0.2-0.1,0.3-0.2c0.1-0.1,0.1-0.2,0.2-0.3
		c0.1-0.2,0.1-0.6,0.1-1.2V7.5c0-0.8-0.1-1.2-0.2-1.4c-0.2-0.2-0.6-0.4-1.1-0.4h-0.4V5.4h9.2V8h-0.2C89.1,7.7,89,7.4,89,7.2
		s-0.1-0.4-0.2-0.5s-0.2-0.2-0.3-0.3c-0.1-0.1-0.2-0.2-0.4-0.2C87.8,6.1,87.4,6,86.8,6H83.6z"/>
	<path class="st0" d="M103,17.3h-3.2l-4-5.6c-0.2,0-0.3,0-0.4,0s-0.2,0-0.3,0c-0.1,0-0.2,0-0.2,0s-0.2,0-0.3,0v3.5
		c0,0.8,0.1,1.2,0.2,1.4c0.2,0.3,0.6,0.4,1,0.4h0.5v0.3h-5.1V17h0.4c0.5,0,0.9-0.2,1.1-0.5c0.1-0.2,0.2-0.6,0.2-1.3V7.5
		c0-0.8-0.1-1.2-0.2-1.4c-0.2-0.3-0.6-0.4-1-0.4h-0.4V5.4h4.3c1.3,0,2.2,0.1,2.8,0.3c0.3,0.1,0.6,0.2,0.8,0.4s0.5,0.4,0.7,0.6
		s0.4,0.5,0.5,0.8c0.1,0.3,0.2,0.6,0.2,1c0,0.4-0.1,0.7-0.2,1c-0.1,0.3-0.3,0.6-0.5,0.9c-0.2,0.3-0.5,0.5-0.9,0.7s-0.8,0.3-1.3,0.5
		l2.5,3.4c0.6,0.8,1.1,1.3,1.5,1.6c0.4,0.3,0.9,0.4,1.6,0.5V17.3z M94.5,11.2c0.1,0,0.2,0,0.3,0s0.1,0,0.2,0c0.6,0,1.1-0.1,1.5-0.2
		c0.4-0.1,0.8-0.3,1.1-0.5s0.5-0.5,0.6-0.8c0.1-0.3,0.2-0.7,0.2-1c0-0.4-0.1-0.7-0.2-1C98.1,7.3,98,7,97.7,6.8
		c-0.2-0.2-0.5-0.4-0.8-0.5c-0.3-0.1-0.7-0.2-1-0.2c-0.2,0-0.4,0-0.6,0c-0.2,0-0.5,0.1-0.8,0.1V11.2z"/>
	<path class="st0" d="M49.9,23.1c1.5,0,2.9,0.6,4,1.8c1.1,1.2,1.7,2.6,1.7,4.4c0,1.8-0.6,3.3-1.7,4.5s-2.5,1.8-4.1,1.8
		c-1.6,0-3-0.6-4.1-1.7s-1.7-2.7-1.7-4.5c0-1.9,0.6-3.4,1.9-4.6C47,23.6,48.3,23.1,49.9,23.1z M49.7,23.8c-0.6,0-1.1,0.1-1.6,0.4
		s-0.9,0.6-1.2,1.1s-0.6,1.1-0.7,1.7S46,28.4,46,29.3c0,0.8,0.1,1.6,0.2,2.3s0.4,1.3,0.7,1.8c0.3,0.5,0.7,0.9,1.2,1.2
		c0.5,0.3,1,0.4,1.6,0.4c0.6,0,1.1-0.1,1.5-0.3s0.9-0.5,1.2-1c0.3-0.4,0.6-1,0.8-1.7s0.3-1.5,0.3-2.5c0-0.9-0.1-1.7-0.2-2.4
		c-0.2-0.7-0.4-1.3-0.7-1.8s-0.7-0.9-1.2-1.1C50.9,23.9,50.4,23.8,49.7,23.8z"/>
	<path class="st0" d="M56.1,23.4h3.2l7.3,8.9v-6.9c0-0.7-0.1-1.2-0.2-1.4c-0.2-0.2-0.6-0.4-1-0.4h-0.4v-0.3H69v0.3h-0.4
		c-0.5,0-0.9,0.2-1.1,0.5c-0.1,0.2-0.2,0.6-0.2,1.3v10H67l-7.9-9.6v7.3c0,0.7,0.1,1.2,0.2,1.4c0.2,0.2,0.6,0.4,1,0.4h0.4v0.3h-4.1
		V35h0.4c0.5,0,0.9-0.2,1.1-0.5c0.1-0.2,0.2-0.6,0.2-1.3V25c-0.2-0.2-0.3-0.4-0.4-0.5s-0.2-0.2-0.3-0.3c-0.1-0.1-0.2-0.1-0.3-0.2
		s-0.3-0.1-0.5-0.2c-0.2-0.1-0.4-0.1-0.8-0.1V23.4z"/>
	<path class="st0" d="M73.1,24v4.7h2.6c0.4,0,0.7,0,0.9-0.1c0.2-0.1,0.4-0.2,0.6-0.3c0.1-0.1,0.2-0.3,0.3-0.5s0.1-0.5,0.1-0.8h0.3
		v4.1h-0.3c0-0.3-0.1-0.5-0.1-0.7c0-0.2-0.1-0.3-0.1-0.4c-0.1-0.1-0.1-0.2-0.2-0.3c-0.1-0.1-0.2-0.1-0.3-0.2s-0.3-0.1-0.5-0.1
		s-0.4,0-0.6,0h-2.6v3.9c0,0.5,0,0.8,0.1,1c0,0.1,0.1,0.1,0.1,0.1s0.1,0.1,0.2,0.1c0.1,0,0.2,0.1,0.3,0.1c0.1,0,0.2,0,0.4,0h2
		c0.3,0,0.6,0,0.9,0c0.2,0,0.4-0.1,0.6-0.1c0.2,0,0.3-0.1,0.5-0.2c0.1-0.1,0.3-0.2,0.4-0.3c0.2-0.2,0.4-0.4,0.6-0.7s0.4-0.6,0.6-1
		h0.4l-1,3h-9.2V35h0.4c0.1,0,0.2,0,0.4,0s0.2-0.1,0.3-0.1c0.1-0.1,0.2-0.1,0.3-0.2c0.1-0.1,0.1-0.2,0.2-0.3
		c0.1-0.2,0.1-0.6,0.1-1.2v-7.7c0-0.8-0.1-1.2-0.2-1.4c-0.2-0.2-0.6-0.4-1.1-0.4h-0.4v-0.3h9.2V26h-0.2c-0.1-0.3-0.1-0.6-0.2-0.8
		s-0.1-0.4-0.2-0.5s-0.2-0.2-0.3-0.3c-0.1-0.1-0.2-0.2-0.4-0.2c-0.2-0.1-0.7-0.1-1.2-0.1H73.1z"/>
</g>
<g>
	<path class="st0" d="M45.6,132.8v4.1h-0.3c-0.1-0.8-0.3-1.4-0.6-1.9c-0.1-0.2-0.3-0.4-0.5-0.6s-0.4-0.3-0.7-0.5
		c-0.2-0.1-0.5-0.2-0.8-0.3s-0.5-0.1-0.8-0.1c-0.3,0-0.6,0.1-0.8,0.2c-0.3,0.1-0.5,0.2-0.7,0.4s-0.3,0.4-0.4,0.6
		c-0.1,0.2-0.2,0.4-0.2,0.7c0,0.3,0.1,0.6,0.2,0.9c0.2,0.2,0.4,0.5,0.6,0.7s0.6,0.4,0.9,0.6s0.8,0.4,1.2,0.6
		c0.5,0.3,0.9,0.5,1.4,0.7s0.8,0.5,1.1,0.8c0.3,0.3,0.6,0.6,0.8,1s0.3,0.8,0.3,1.3c0,0.4-0.1,0.9-0.3,1.3c-0.2,0.4-0.4,0.8-0.8,1.1
		c-0.3,0.3-0.7,0.5-1.2,0.7c-0.5,0.2-1,0.3-1.5,0.3c-0.2,0-0.4,0-0.5,0s-0.3,0-0.4,0c-0.1,0-0.3-0.1-0.4-0.1c-0.1,0-0.3-0.1-0.5-0.2
		c-0.1-0.1-0.3-0.1-0.4-0.1c-0.1,0-0.3-0.1-0.4-0.1s-0.2-0.1-0.3-0.1s-0.1,0-0.2,0c-0.1,0-0.3,0-0.3,0.1s-0.1,0.3-0.2,0.5h-0.3v-4.1
		h0.3c0.1,0.4,0.2,0.8,0.3,1.1s0.2,0.6,0.3,0.8c0.1,0.2,0.3,0.4,0.5,0.6s0.4,0.3,0.7,0.5c0.3,0.1,0.5,0.2,0.8,0.3
		c0.3,0.1,0.6,0.1,0.9,0.1c0.4,0,0.7-0.1,1-0.2s0.5-0.2,0.7-0.4c0.2-0.2,0.4-0.4,0.5-0.6c0.1-0.2,0.2-0.5,0.2-0.7
		c0-0.4-0.1-0.7-0.2-1s-0.4-0.5-0.6-0.7s-0.6-0.4-0.9-0.6s-0.7-0.4-1.1-0.6c-0.4-0.3-0.9-0.5-1.3-0.8c-0.4-0.2-0.8-0.5-1.1-0.8
		c-0.3-0.3-0.6-0.6-0.8-1s-0.3-0.8-0.3-1.3c0-0.4,0.1-0.8,0.3-1.2s0.4-0.7,0.7-1s0.7-0.5,1.1-0.7c0.4-0.2,0.9-0.3,1.4-0.3
		c0.6,0,1.3,0.2,2,0.5c0.3,0.1,0.5,0.2,0.7,0.2c0.2,0,0.3,0,0.4-0.1s0.2-0.3,0.2-0.5H45.6z"/>
	<path class="st0" d="M53.9,132.8c1.5,0,2.9,0.6,4,1.8c1.1,1.2,1.7,2.6,1.7,4.4c0,1.8-0.6,3.3-1.7,4.5s-2.5,1.8-4.1,1.8
		c-1.6,0-3-0.6-4.1-1.7s-1.7-2.7-1.7-4.5c0-1.9,0.6-3.4,1.9-4.6C51,133.3,52.3,132.8,53.9,132.8z M53.7,133.4
		c-0.6,0-1.1,0.1-1.6,0.4s-0.9,0.6-1.2,1.1s-0.6,1.1-0.7,1.7s-0.3,1.4-0.3,2.3c0,0.8,0.1,1.6,0.2,2.3s0.4,1.3,0.7,1.8
		c0.3,0.5,0.7,0.9,1.2,1.2c0.5,0.3,1,0.4,1.6,0.4c0.6,0,1.1-0.1,1.5-0.3s0.9-0.5,1.2-1c0.3-0.4,0.6-1,0.8-1.7s0.3-1.5,0.3-2.5
		c0-0.9-0.1-1.7-0.2-2.4c-0.2-0.7-0.4-1.3-0.7-1.8s-0.7-0.9-1.2-1.1C54.9,133.6,54.4,133.4,53.7,133.4z"/>
	<path class="st0" d="M66.9,132.8c1.5,0,2.9,0.6,4,1.8c1.1,1.2,1.7,2.6,1.7,4.4c0,1.8-0.6,3.3-1.7,4.5s-2.5,1.8-4.1,1.8
		c-1.6,0-3-0.6-4.1-1.7s-1.7-2.7-1.7-4.5c0-1.9,0.6-3.4,1.9-4.6C64,133.3,65.3,132.8,66.9,132.8z M66.7,133.4
		c-0.6,0-1.1,0.1-1.6,0.4s-0.9,0.6-1.2,1.1s-0.6,1.1-0.7,1.7c-0.2,0.7-0.3,1.4-0.3,2.3c0,0.8,0.1,1.6,0.2,2.3s0.4,1.3,0.7,1.8
		c0.3,0.5,0.7,0.9,1.2,1.2c0.5,0.3,1,0.4,1.6,0.4c0.6,0,1.1-0.1,1.5-0.3c0.5-0.2,0.9-0.5,1.2-1c0.3-0.4,0.6-1,0.8-1.7
		c0.2-0.7,0.3-1.5,0.3-2.5c0-0.9-0.1-1.7-0.2-2.4c-0.2-0.7-0.4-1.3-0.7-1.8c-0.3-0.5-0.7-0.9-1.2-1.1
		C67.9,133.6,67.4,133.4,66.7,133.4z"/>
	<path class="st0" d="M73.1,133.1h3.2l7.3,8.9v-6.9c0-0.7-0.1-1.2-0.2-1.4c-0.2-0.2-0.6-0.4-1-0.4h-0.4v-0.3h4.1v0.3h-0.4
		c-0.5,0-0.9,0.2-1.1,0.5c-0.1,0.2-0.2,0.6-0.2,1.3v10H84l-7.9-9.6v7.3c0,0.7,0.1,1.2,0.2,1.4c0.2,0.2,0.6,0.4,1,0.4h0.4v0.3h-4.1
		v-0.3h0.4c0.5,0,0.9-0.2,1.1-0.5c0.1-0.2,0.2-0.6,0.2-1.3v-8.3c-0.2-0.2-0.3-0.4-0.4-0.5s-0.2-0.2-0.3-0.3
		c-0.1-0.1-0.2-0.1-0.3-0.2s-0.3-0.1-0.5-0.2c-0.2-0.1-0.4-0.1-0.8-0.1V133.1z"/>
</g>
</svg>
