<?xml version="1.0" encoding="utf-8"?>
<!-- Generator: Adobe Illustrator 21.0.2, SVG Export Plug-In . SVG Version: 6.00 Build 0)  -->
<svg version="1.1" id="Layer_1" xmlns="http://www.w3.org/2000/svg" xmlns:xlink="http://www.w3.org/1999/xlink" x="0px" y="0px"
	 viewBox="0 0 32 32" style="enable-background:new 0 0 32 32;" xml:space="preserve">
<style type="text/css">
	.st0{fill:#FFFFFF;}
</style>
<g>
	<g>
		<path class="st0" d="M16,2.9c4.3,0,4.8,0,6.4,0.1c1.6,0.1,2.4,0.3,3,0.5c0.7,0.3,1.3,0.6,1.8,1.2c0.6,0.6,0.9,1.1,1.2,1.8
			c0.2,0.6,0.5,1.4,0.5,3c0.1,1.7,0.1,2.2,0.1,6.4s0,4.8-0.1,6.4c-0.1,1.6-0.3,2.4-0.5,3c-0.3,0.7-0.6,1.3-1.2,1.8
			c-0.6,0.6-1.1,0.9-1.8,1.2c-0.6,0.2-1.4,0.5-3,0.5C20.8,29,20.3,29,16,29s-4.8,0-6.4-0.1c-1.6-0.1-2.4-0.3-3-0.5
			c-0.7-0.3-1.3-0.6-1.8-1.2c-0.6-0.6-0.9-1.1-1.2-1.8c-0.2-0.6-0.5-1.4-0.5-3c-0.1-1.7-0.1-2.2-0.1-6.4s0-4.8,0.1-6.4
			c0.1-1.6,0.3-2.4,0.5-3c0.3-0.7,0.6-1.3,1.2-1.8c0.6-0.6,1.1-0.9,1.8-1.2C7.2,3.3,8,3,9.6,3C11.2,2.9,11.7,2.9,16,2.9 M16,0
			c-4.3,0-4.9,0-6.6,0.1C7.7,0.2,6.6,0.4,5.5,0.8c-1,0.4-1.9,1-2.8,1.8C1.8,3.6,1.3,4.5,0.9,5.5c-0.4,1-0.7,2.2-0.7,3.9
			C0.1,11.1,0,11.6,0,16c0,4.3,0,4.9,0.1,6.6c0.1,1.7,0.3,2.9,0.7,3.9c0.4,1,1,1.9,1.8,2.8c0.9,0.9,1.8,1.4,2.8,1.8
			c1,0.4,2.2,0.7,3.9,0.7c1.7,0.1,2.2,0.1,6.6,0.1s4.9,0,6.6-0.1c1.7-0.1,2.9-0.3,3.9-0.7c1-0.4,1.9-1,2.8-1.8
			c0.9-0.9,1.4-1.8,1.8-2.8c0.4-1,0.7-2.2,0.7-3.9c0.1-1.7,0.1-2.2,0.1-6.6s0-4.9-0.1-6.6c-0.1-1.7-0.3-2.9-0.7-3.9
			c-0.4-1-1-1.9-1.8-2.8c-0.9-0.9-1.8-1.4-2.8-1.8c-1-0.4-2.2-0.7-3.9-0.7C20.9,0,20.3,0,16,0L16,0z"/>
		<path class="st0" d="M16,7.8c-4.5,0-8.2,3.7-8.2,8.2s3.7,8.2,8.2,8.2s8.2-3.7,8.2-8.2S20.5,7.8,16,7.8z M16,21.3
			c-2.9,0-5.3-2.4-5.3-5.3s2.4-5.3,5.3-5.3s5.3,2.4,5.3,5.3S18.9,21.3,16,21.3z"/>
		<circle class="st0" cx="24.5" cy="7.4" r="1.9"/>
	</g>
</g>
</svg>
